<?xml version="1.0" encoding="UTF-8" standalone="no"?>
<svg 
   width="16"
   height="16"
   version="1.1"
   id="svg10" sodipodi:docname="utilities-transmission-daemon-turtle-symbolic.svg"
   inkscape:version="1.2.2 (b0a8486541, 2022-12-01)"
   inkscape:export-filename="/Hackering/My_Project/GShell_Extensions/gnome-shell-extension-wifiqrcode/wifiqrcode@glerro.gnome.gitlab.io/icons/utilities-looking-glass-symbolic.png"
   inkscape:export-xdpi="1536"
   inkscape:export-ydpi="1536"
   xmlns:inkscape="http://www.inkscape.org/namespaces/inkscape"
   xmlns:sodipodi="http://sodipodi.sourceforge.net/DTD/sodipodi-0.dtd"
   xmlns="http://www.w3.org/2000/svg"
   xmlns:svg="http://www.w3.org/2000/svg"
   xmlns:rdf="http://www.w3.org/1999/02/22-rdf-syntax-ns#"
   xmlns:cc="http://creativecommons.org/ns#"
   xmlns:dc="http://purl.org/dc/elements/1.1/">
  <metadata id="metadata16">
    <rdf:RDF>
      <cc:Work rdf:about="">
        <dc:format>image/svg+xml</dc:format>
        <dc:type rdf:resource="http://purl.org/dc/dcmitype/StillImage" />
        <dc:creator>
          <cc:Agent>
            <dc:title>Gianni Lerro &lt;glerro@pm.me&gt;</dc:title>
          </cc:Agent>
        </dc:creator>
        <cc:license rdf:resource="http://creativecommons.org/licenses/by-sa/4.0/" />
      </cc:Work>
      <cc:License rdf:about="http://creativecommons.org/licenses/by-sa/4.0/">
        <cc:permits rdf:resource="http://creativecommons.org/ns#Reproduction" />
        <cc:permits rdf:resource="http://creativecommons.org/ns#Distribution" />
        <cc:requires rdf:resource="http://creativecommons.org/ns#Notice" />
        <cc:requires rdf:resource="http://creativecommons.org/ns#Attribution" />
        <cc:permits rdf:resource="http://creativecommons.org/ns#DerivativeWorks" />
        <cc:requires rdf:resource="http://creativecommons.org/ns#ShareAlike" />
      </cc:License>
    </rdf:RDF>
  </metadata>
  <defs
     id="defs14" />
  <sodipodi:namedview
     pagecolor="#ffffff"
     bordercolor="#666666"
     borderopacity="1"
     objecttolerance="10"
     gridtolerance="10"
     guidetolerance="10"
     inkscape:pageopacity="0"
     inkscape:pageshadow="2"
     inkscape:window-width="1618"
     inkscape:window-height="981"
     id="namedview12"
     showgrid="false"
     inkscape:zoom="45.625"
     inkscape:cx="6.739726"
     inkscape:cy="8"
     inkscape:window-x="62"
     inkscape:window-y="32"
     inkscape:window-maximized="1"
     inkscape:current-layer="g6"
     inkscape:snap-smooth-nodes="true"
     showguides="true"
     inkscape:guide-bbox="true"
     inkscape:pagecheckerboard="0"
     inkscape:showpageshadow="0"
     inkscape:deskcolor="#d1d1d1" />
  <g
     id="g6"
     style="fill:#474747;fill-opacity:1"
     transform="matrix(0.12543785,0,0,0.12543785,0.29519207,3.4938517)">
    <path 
       class="st0"
       d="M 6.62,46.65 C 5.12,45.7 4.48,44.26 4.51,42.81 4.53,42.08 4.72,41.36 5.06,40.71 5.4,40.06 5.89,39.48 6.5,39.03 c 0.91,-0.67 2.08,-1.07 3.42,-0.97 0.17,-2.61 0.5,-4.99 1.06,-7.05 0.72,-2.6 1.83,-4.7 3.48,-6.09 0.64,-0.54 1.26,-0.97 1.97,-1.24 0.52,-0.19 1.07,-0.29 1.65,-0.26 1.78,-3.35 3.91,-6.3 6.43,-8.81 2.72,-2.71 5.89,-4.91 9.55,-6.56 2.49,-1.12 4.72,-1.94 7.02,-2.33 2.34,-0.4 4.71,-0.35 7.47,0.29 1.24,0.29 2.5,0.67 3.76,1.12 0.96,0.34 1.91,0.73 2.86,1.14 l 0.06,-0.06 c 0.86,-0.79 2.39,-0.92 4.27,-0.55 1.59,0.31 3.53,0.97 5.55,1.87 5.03,2.23 10.68,5.98 12.8,9.48 0.26,-0.05 0.52,-0.09 0.79,-0.12 1.19,-0.13 2.34,-0.06 3.46,0.16 0.98,0.2 1.92,0.51 2.83,0.9 l 0.62,-0.1 c -0.16,-9.56 3.77,-15.33 9.14,-18.04 3.82,-1.93 8.36,-2.26 12.65,-1.28 4.27,0.98 8.32,3.26 11.21,6.59 4.47,5.14 6.17,12.7 1.64,21.69 -0.2,0.4 -0.58,0.64 -0.99,0.68 -1.48,0.23 -2.72595,-0.94645 -4.19595,-0.99645 -0.39178,-1.582085 -4.03578,0.434463 -4.33578,0.414463 0.73,0.77 4.65173,2.341987 5.20173,3.171987 0.39,0.57 0.24,1.35 -0.34,1.74 l -0.03,0.02 c -6.19,4.32 -13.14,4.43 -21.07,4.56 -1.28,0.02 -2.59,0.04 -3.95,0.08 -5.9,0.18 -6.6,0.58 -10.48,2.79 -0.27,0.15 -0.56,0.32 -0.87,0.49 l 13.73,19.29 v 0 c 0.15,0.21 0.23,0.46 0.23,0.73 -0.01,0.69 -0.57,1.24 -1.26,1.24 L 73.59,62.81 c -0.79,0.04 -1.55,-0.05 -2.29,-0.27 -0.73,-0.22 -1.43,-0.56 -2.12,-1.03 -1.86,-1.26 -3.68,-3.87 -5.31,-6.67 -3.81,2.4 -7.98,4.05 -12.53,4.84 -4.38,0.76 -9.11,0.73 -14.21,-0.2 -0.35,1.78 -1.01,3.31 -2.06,4.53 -0.25,0.29 -0.59,0.43 -0.95,0.43 v 0 h -22.5 c -0.05,0 -0.1,0 -0.15,-0.01 C 10.67,64.4 9.94,64.44 9.34,64.47 8.3,64.52 7.54,64.56 6.92,64.22 5.8,63.6 5.69,62.64 6.74,60.76 7.84,58.79 9.01,56.84 10.32,54.95 10.17,55 10.02,55.04 9.87,55.08 7.21,55.8 4.26,55.82 1.08,55.29 0.63,55.24 0.23,54.94 0.06,54.49 -0.19,53.84 0.14,53.12 0.78,52.87 2.28,52.3 3.56,51.46 4.59,50.34 5.48,49.37 6.19,48.18 6.73,46.74 6.71,46.73 6.66,46.69 6.62,46.65 Z m 1.54,15.41 c 0,0 0.07,0 0.18,-0.01 C 8.12,62 7.96,61.95 8.16,62.06 Z"
       id="path4"
       style="fill:#474747;fill-opacity:1"
       sodipodi:nodetypes="ccscccccccccccccccccccccccccccccccccccscccccccccscsccccccccccccccc" />
  </g>
</svg>
